{
	"basenames":[
			"checkout-b", "checkout", "checkout-c-1", "checkout-c-3", "checkout-e-1", "checkout-e-2"
	],
	"filternav" :[
		{
			"id" : "all",
			"text": "See All"
		},
		{
			"id" : "diagnosis",
			"text": "Diagnosis"
		},
		{
			"id" : "treatment",
			"text": "Treatment"
		},
		{
			"id" : "human",
			"text": "Human Vaccination"
		},
		{
			"id" : "awareness",
			"text": "Awareness & Education"
		},
		{
			"id" : "bigdata",
			"text": "Big data"
		},
		{
			"id" : "ecological",
			"text": "Ecological Prevention"
		}
	],
	"filterItem":[
		{
			"filTarget" : "diagnosis",
			"title" : "Cary Institute",
			"desc" : "The Foundation is the primary funder of a large-scale study to test unique ecological interventions aimed at killing ticks, which may translate into a scalable community-based health protection model. "
		},
		{
			"filTarget" : "treatment",
			"title" : "Virginia Commonwealth University",
			"desc" : "Dr. Richard Marconi and his team at Virginia Commonwealth University recently developed a Lyme vaccine for animals and are working to develop a vaccine to improve upon LYMErix."
		},
		{
			"filTarget" : "human",
			"title" : "Columbia University",
			"desc" : "To ensure that the most innovative scientific research on Lyme disease is made available to researchers, the Foundation is funding a science writer to work with Dr. Brian Fallon at the Tick-Borne Disease Center at Columbia University."
		},
		{
			"filTarget" : "awareness",
			"title" : "Bay Area Lyme Foundation",
			"desc" : "The foundation will sponsor the Bay Area Lyme Foundation to establish the Alexandra Cohen Emerging Leader Award. This award will fund up to nine, one-year grants for young, innovative researchers."
		},
		{
			"filTarget" : "bigdata",
			"title" : "Columbia University",
			"desc" : "To ensure that the most innovative scientific research on Lyme disease is made available to researchers, the Foundation is funding a science writer to work with Dr. Brian Fallon at the Tick-Borne Disease Center at Columbia University."
		},
		{
			"filTarget" : "ecological",
			"title" : "Bay Area Lyme Foundation",
			"desc" : "The foundation will sponsor the Bay Area Lyme Foundation to establish the Alexandra Cohen Emerging Leader Award. This award will fund up to nine, one-year grants for young, innovative researchers."
		},
		{
			"filTarget" : "treatment",
			"title" : "Cary Institute",
			"desc" : "The Foundation is the primary funder of a large-scale study to test unique ecological interventions aimed at killing ticks, which may translate into a scalable community-based health protection model. "
		},
		{
			"filTarget" : "human",
			"title" : "Virginia Commonwealth University",
			"desc" : "Dr. Richard Marconi and his team at Virginia Commonwealth University recently developed a Lyme vaccine for animals and are working to develop a vaccine to improve upon LYMErix."
		},
		{
			"filTarget" : "awareness",
			"title" : "Columbia University",
			"desc" : "To ensure that the most innovative scientific research on Lyme disease is made available to researchers, the Foundation is funding a science writer to work with Dr. Brian Fallon at the Tick-Borne Disease Center at Columbia University."
		},
		{
			"filTarget" : "bigdata",
			"title" : "Bay Area Lyme Foundation",
			"desc" : "The foundation will sponsor the Bay Area Lyme Foundation to establish the Alexandra Cohen Emerging Leader Award. This award will fund up to nine, one-year grants for young, innovative researchers."
		},
		{
			"filTarget" : "ecological",
			"title" : "Columbia University",
			"desc" : "To ensure that the most innovative scientific research on Lyme disease is made available to researchers, the Foundation is funding a science writer to work with Dr. Brian Fallon at the Tick-Borne Disease Center at Columbia University."
		},
		{
			"filTarget" : "awareness",
			"title" : "Bay Area Lyme Foundation",
			"desc" : "The foundation will sponsor the Bay Area Lyme Foundation to establish the Alexandra Cohen Emerging Leader Award. This award will fund up to nine, one-year grants for young, innovative researchers."
		},
		{
			"filTarget" : "treatment",
			"title" : "Columbia University",
			"desc" : "To ensure that the most innovative scientific research on Lyme disease is made available to researchers, the Foundation is funding a science writer to work with Dr. Brian Fallon at the Tick-Borne Disease Center at Columbia University."
		},
		{
			"filTarget" : "human",
			"title" : "Bay Area Lyme Foundation",
			"desc" : "The foundation will sponsor the Bay Area Lyme Foundation to establish the Alexandra Cohen Emerging Leader Award. This award will fund up to nine, one-year grants for young, innovative researchers."
		},
		{
			"filTarget" : "diagnosis",
			"title" : "Columbia University",
			"desc" : "To ensure that the most innovative scientific research on Lyme disease is made available to researchers, the Foundation is funding a science writer to work with Dr. Brian Fallon at the Tick-Borne Disease Center at Columbia University."
		}
	],

	"news":[
		{
			"title" : "Lyme disease surge predicted for Northeastern US",
			"desc": "The northeastern US should prepare for a surge in Lyme disease this spring. And we can blame fluctuations in acorns and mouse populations, not the mild winter.",
			"date" : "2 hours ago"
		},
		{
			"title" : "Researchers’ discovery may explain difficulty in treating Lyme disease",
			"desc": "North­eastern Uni­ver­sity researchers have found that the bac­terium that causes Lyme dis­ease forms dor­mant per­sister cells, which are known to evade antibi­otics.",
			"date" : "11 hours ago"
		},
		{
			"status" : true,
			"title" : "Johns Hopkins launches first U.S. center to study Lyme disease",
			"desc": "Lyme Disease Clinical Research Center will explore causes, cures for ailment that costs $1.3 billion annually to treat.",
			"date" : "November 18, 2015"
		}
	]

}